[{
    "mode": "challenge",
    "id": "001",
	"title": "Challenge 1",
	"goals": [
		{
			"id": 1,
			"delay": 0,
			"targets": [{
					"type": "ring-layer-3",
					"subtype": "r1",
					"amount": 1
				},
				{
					"type": "ring-layer-2",
					"subtype": "r2",
					"amount": 2
				},
				{
					"type": "ring-layer-1",
					"subtype": "r3",
					"amount": 3
			}],
			"numberOfTargetsRequired": 3,
			"reward": {
				"score": 100
			},
			"text": {
				"start": {
					"en": ""
				},
				"succes": {
					"en": "Good job!"
				}
			}
		}],
	"background": {
		"id": "background",
		"scaleToFit": true,
		"x": 0.5,
		"y": 0.5,
		"rotationSpeed": 10
	},
	"stage": {
		"x": 0.5,
		"y": 0.7,
		"zoomLocked": true,
		"dragLocked": true,
		"rotationSpeed": 0,
		"layerCount": 4,
		"planet": {
			"name": "Planet X",
			"rotationSpeed": 2,
			"id": "gray",
			"filters": {
				"color": [1, 1, 1, 1, 54, 41, 13, 0]
			},
			"r": 2
		}
	},
	"instructions": [],
	"outerSpace": {
		"speed": 0.8,
		"speedIncrease": 0.5,
		"interval": 800,
		"sequence": "r1r1r1r1r1_ _ r2r2r2r2_ _ r3r3r3_ _ r1r1r1r1r1r1r1_ _ r2r2r2r2r2_ _ r3r3_ _ "
	}
},{
    "mode": "challenge",
    "id": "002",
	"title": "Challenge 1",
	"goals": [
		{
			"id": 1,
			"delay": 0,
			"targets": [
				{
					"type": "stack",
					"amount": 6
				}, {
					"type": "ring",
					"subtype": "t1",
					"amount": 4
				}
				],
			"numberOfTargetsRequired": 2,
			"reward": {
				"score": 100
			},
			"text": {
				"start": {
					"en": ""
				},
				"succes": {
					"en": "Good job!"
				}
			}
		}],
	"background": {
		"id": "background",
		"scaleToFit": true,
		"x": 0.5,
		"y": 0.5,
		"rotationSpeed": 10,
		"filters": {
			"color": [1, 1, 1, 1, 50, 20, -50, 0]
		}
	},
	"stage": {
		"x": 0.5,
		"y": 0.7,
		"zoomLocked": true,
		"dragLocked": true,
		"rotationSpeed": -1,
		"layerCount": 7,
		"planet": {
			"name": "Planet X",
			"rotationSpeed": -22,
			"id": "gray",
			"filters": {
				"color": [1, 1, 1, 1, 14, 26, 7, 0]
			},
			"r": 2
		}
	},
	"instructions": [],
	"outerSpace": {
		"speed": 0.8,
		"speedIncrease": 0.5,
		"interval": 1200,
		"sequence": "r1r1_ _ s1s1s1_ s1_ _ t1t1t1t1t1t1_ _ r2r2r2r2_ _ "
	}
},{
    "mode": "challenge",
    "id": "003",
	"title": "Challenge 1",
	"goals": [{
		"id": 1,
		"delay": 500,
		"targets": [{
			"type": "score",
			"amount": 500,
			"compare": ">="
			}],
		"numberOfTargetsRequired": 1,
		"reward": {
			"score": 500
		},
		"text": {
			"start": {
				"en": "Score 500 points "
			},
			"succes": {
				"en": "/cheer"
			}
		}
		}],
	"background": {
		"id": "lightning",
		"scaleToFit": true,
		"x": 0.5,
		"y": 0.5,
		"alpha": 0.3,
		"rotationSpeed": 3
	},
	"stage": {
		"x": 0.5,
		"y": 0.7,
		"dragLocked": true,
		"rotationSpeed": -5,
		"layerCount": 6,
		"planet": {
			"name": "Planet X",
			"id": "fplanet2",
			"filters": {
				"color": [1, 1, 1, 1, 0, -30, -10, 0]
			},
			"r": 2
		}
	},
	"instructions": [],
	"outerSpace": {
		"speed": 0.7,
		"interval": 800,
		"speedIncrease": 0.5,
		"seed": 1,
		"sequence": "t1t1t1_ r1r1r1r1_ _ _ r2r2r2r2r2r2r2_ _ _ t1t1_ _ r1r1r1r1_ r2r2r2r2_ _ _ _ _ t1t1_ r1r2r1r2r1r2r1r2_ _ s1s1_ "
	}
},{
    "mode": "challenge",
    "id": "004",
	"title": "attack back",
	"goals": [
		{
			"id": 1,
			"delay": 500,
			"outerSpace": {
				"speed": 1
			},
			"targets": [{
				"type": "enemy-killed",
				"amount": 1
			}],
			"numberOfTargetsRequired": 1,
			"reward": {
				"score": 10000
			},
			"text": {
				"start": {
					"en": ""
				},
				"succes": {
					"en": "Holy smack!!"
				}
			}
		}
	],
	"background": {
		"id": "background",
		"alpha": 0.6,
		"scaleToFit": true,
		"x": 0.5,
		"y": 0.5,
		"filters": {
			"color": [1, 1, 1, 1, 90, 70, 0, 0]
		},
		"rotationSpeed": 3
	},
	"stage": {
		"x": 0.5,
		"y": 0.7,
		"rotationSpeed": 0,
		"layerCount": 7,
		"planet": {
			"name": "Planet X",
			"id": "moon",
			"filters": {
				"color": [0.75, 0.75, 0.75, 1, 10, 26, 14, 0]
			},
			"r": 2
		},
		"shields": true
	},
	"enemy": {
		"loop": false,
		"items": [
			{
				"id": "wave-1",
				"delay": 0,
				"items": [
					{
						"id": "ufo-1",
						"delay": 0,
						"scale": 0.5,
						"x": 0.5,
						"y": -1,
						"filters": {
							"color": [0.75, 0.75, 0.75, 0.5, -10, -26, -14, 0]
						},
						"missiles": {
							"id": "missile waves",
							"delay": 10000,
							"loop": true,

							"items": [{
								"id": "missiles",
								"delay": 10000,
								"interval": 2500,
								"items": "b2c2g1",
								"loop": true
							}]
						}

					}
				]
			}
		]
	},
	"outerSpace": {
		"speed": 1.2,
		"interval": 700,
		"spread": 0,
		"sequence": "r2r2r2_ _ s1s1s1s1_ _ t1t1t1_ _ _ "
	}
},{
    "mode": "story",
    "id": "001",
    "title": "Level 1",
    "speedIncrease": "todo",
    "goals": [
        {
            "id": 1,
            "delay": 1000,
            "outerSpace": {
                "speed": 0
            },
            "targets": [
                {
                    "type": "rotate",
                    "amount": 360,
                    "compare": "abs"
                }
            ],
            "numberOfTargetsRequired": 1,
            "reward": {
                "score": 100
            },
            "text": {
                "start": {
                    "en": "Rotate the planet 360 degrees"
                },
                "succes": {
                    "en": "Good! For more information on your current goal, you can always touch the text at the top of the screen."
                }
            }
        },
        {
            "id": 2,
            "delay": 500,
            "targets": [
                {
                    "type": "change",
                    "amount": 10
                }
            ],
            "numberOfTargetsRequired": 1,
            "reward": {
                "score": 200
            },
            "text": {
                "start": {
                    "en": "Change colors 10 times. You can change a color by surrounding it with a different color."
                },
                "succes": {
                    "en": "Way to go!"
                }
            }
        },
        {
            "id": 3,
            "delay": 500,
            "targets": [
                {
                    "type": "change",
                    "amount": 10,
                    "subtype": "r1"
                },
                {
                    "type": "change",
                    "amount": 10,
                    "subtype": "r2"
                }
            ],
            "numberOfTargetsRequired": 2,
            "reward": {
                "score": 500
            },
            "text": {
                "start": {
                    "en": "Turn 10 pink balls into yellow and 10 yellow balls into pink"
                },
                "succes": {
                    "en": "Level complete!"
                }
            }
        }
    ],
    "background": {
        "id": "background",
        "scaleToFit": true,
        "x": 0.5,
        "y": 0.5,
        "rotationSpeed": 1
    },
    "stage": {
        "x": 0.5,
        "y": 0.7,
        "zoomLocked": true,
        "dragLocked": true,
        "rotationSpeed": 0,
        "layerCount": 3,
        "planet": {
            "name": "Planet X",
            "id": "gray",
            "filters": {
                "color": [0.8, 0.8, 0.8, 1, 72, 63, 16, 0]
            },
            "r": 2
        }
    },
    "outerSpace": {
        "speed": 0.5,
        "interval": 2000,
        "sequence": "r1r1r2r2r1r1r1r2r2r1r1r1r1r2r2_ _ "
    }
},{
    "mode": "story",
    "id": "002",
	"title": "Level 2",
	"goals": [
		{
			"id": 1,
			"delay": 500,
			"targets": [{
				"type": "ring",
				"amount": 1
			}],
			"numberOfTargetsRequired": 1,
			"reward": {
				"score": 100
			},
			"text": {
				"start": {
					"en": "Create a ring"
				},
				"succes": {
					"en": "Nice!"
				}
			}
		},
		{
			"id": 2,
			"delay": 500,
			"targets": [{
				"type": "ring",
				"subtype": "r1",
				"amount": 1
			}],
			"numberOfTargetsRequired": 1,
			"reward": {
				"score": 200
			},
			"text": {
				"start": {
					"en": "Now let's create a yellow ring"
				},
				"succes": {
					"en": "Perfect!"
				}
			}
		},
		{
			"id": 3,
			"delay": 500,
			"targets": [{
				"type": "ring",
				"subtype": "r2",
				"amount": 2
			}],
			"numberOfTargetsRequired": 1,
			"reward": {
				"score": 500
			},
			"text": {
				"start": {
					"en": "Create two pink rings"
				},
				"succes": {
					"en": "Level complete!"
				}
			}
		}],
	"background": {
		"id": "background",
		"scaleToFit": true,
		"x": 0.5,
		"y": 0.5,
		"rotationSpeed": -1
	},
	"stage": {
		"x": 0.5,
		"y": 0.7,
		"zoomLocked": true,
		"dragLocked": true,
		"rotationSpeed": 2,
		"layerCount": 3,
		"planet": {
			"name": "Planet X",
			"id": "gray",
			"filters": {
				"color": [1, 0.66, 0.78, 1, 90, 65, 64, 1]
			},
			"r": 2
		}
	},
	"outerSpace": {
		"speed": 0.6,
		"interval": 1500,
		"sequence": "r1r1r1r1_ r2r2r2r2_ "
	}
},{
    "mode": "story",
    "id": "003",
    "title": "Level 3",
    "goals": [
        {
            "id": 1,
            "delay": 500,
            "targets": [
                {
                    "type": "ring",
                    "subtype": "r3",
                    "amount": 1
                },
                {
                    "type": "ring",
                    "subtype": "r1",
                    "amount": 1
                },
                {
                    "type": "ring",
                    "subtype": "r2",
                    "amount": 1
                }
            ],
            "numberOfTargetsRequired": 3,
            "reward": {
                "score": 100
            },
            "text": {
                "start": {
                    "en": "Create a blue a yellow and a red ring, quickly tap anywhere to speed up"
                },
                "succes": {
                    "en": "Good job!"
                }
            }
        }
    ],
    "background": {
        "id": "background",
        "scaleToFit": true,
        "x": 0.5,
        "y": 0.5,
        "rotationSpeed": 1
    },
    "stage": {
        "x": 0.5,
        "y": 0.7,
        "zoomLocked": true,
        "dragLocked": true,
        "rotationSpeed": -2,
        "layerCount": 3,
        "planet": {
            "name": "Planet X",
            "id": "gray",
            "filters": {
                "color": [0.75, 0.75, 0.75, 1, 10, 30, 70, 0]
            },
            "r": 2
        }
    },
    "outerSpace": {
        "speed": 0.6,
        "interval": 1500,
        "sequence": "r3r3_ _ r1r1_ _ r2r2_ _ r1r1_ _ r2r2_ _ r1r1_ _ r2r2_ _ _ _ r3r3"
    }
},{
    "mode": "story",
    "id": "004",
    "title": "Level 4",
    "goals": [
        {
            "id": 1,
            "delay": 500,
            "targets": [
                {
                    "type": "ring-layer-2",
                    "amount": 1
                }
            ],
            "numberOfTargetsRequired": 1,
            "reward": {
                "score": 1000
            },
            "text": {
                "start": {
                    "en": "Create a larger ring on the second layer, hint: fill up the first layer with 3 different colors first"
                },
                "succes": {
                    "en": "Note: Same colored objects on the lower ring will also dissapear and increase your score"
                }
            }
        },
        {
            "id": 2,
            "delay": 500,
            "outerSpace": {
                "interval": 1200,
                "speed": 0.75,
                "sequence": "r1r1r1r1_ _ _ r2r2r2r2_ _ _ r3r3r3r3_ _ _ _ "
            },
            "targets": [
                {
                    "type": "ring-layer-3",
                    "amount": 1
                }
            ],
            "numberOfTargetsRequired": 1,
            "reward": {
                "score": 1000
            },
            "text": {
                "start": {
                    "en": "Now let's speed a bit up and create a ring on the third layer"
                },
                "succes": {
                    "en": "Fantastic!"
                }
            }
        }
    ],
    "background": {
        "id": "background",
        "scaleToFit": true,
        "x": 0.5,
        "y": 0.5,
        "rotationSpeed": 1
    },
    "stage": {
        "x": 0.5,
        "y": 0.7,
        "zoomLocked": true,
        "dragLocked": true,
        "rotationSpeed": -2,
        "layerCount": 4,
        "planet": {
            "name": "Planet X",
            "id": "gray",
            "filters": {
                "color": [0.75, 0.75, 0.75, 1, 10, 30, 70, 0]
            },
            "r": 2
        }
    },
    "outerSpace": {
        "speed": 0.6,
        "interval": 1500,
        "sequence": "r1r1r1r1_ _ _ r2r2r2r2_ _ _ r3r3r3r3_ _ _ r1r1r1r1_ _ r2r2r2r2_ _ r3r3r3r3_ _ _ _ "
    }
},{
    "mode": "story",
    "id": "005",
    "title": "Level 5",
    "goals": [
        {
            "id": 1,
            "delay": 500,
            "targets": [
                {
                    "type": "score",
                    "amount": 30,
                    "compare": ">="
                }
            ],
            "numberOfTargetsRequired": 1,
            "reward": {
                "score": 1000
            },
            "text": {
                "start": {
                    "en": "Score 30 points, remember: larger rings will yield more points, also each shape&color has a different value, bolls for example:  blue > pink > yellow "
                },
                "succes": {
                    "en": "Tjaka !!!"
                }
            }
        }
    ],
    "background": {
        "id": "background",
        "scaleToFit": true,
        "x": 0.5,
        "y": 0.5,
        "rotationSpeed": 1
    },
    "stage": {
        "x": 0.5,
        "y": 0.7,
        "zoomLocked": true,
        "dragLocked": true,
        "rotationSpeed": -2,
        "layerCount": 5,
        "planet": {
            "name": "Planet X",
            "id": "gray",
            "filters": {
                "color": [0.75, 0.75, 0.75, 1, 10, 30, 70, 0]
            },
            "r": 2
        }
    },
    "outerSpace": {
        "speed": 0.7,
        "interval": 1200,
        "sequence": "r3_ _ r2r2_ _ _ r1r1r1_ _ _ _ "
    }
},{
    "mode": "story",
    "id": "006",
    "title": "Level 6",
    "goals": [
        {
            "id": 1,
            "delay": 500,
            "targets": [
                {
                    "type": "ring",
                    "subtype": "r1",
                    "amount": 1
                }
            ],
            "numberOfTargetsRequired": 1,
            "reward": {
                "score": 1000
            },
            "text": {
                "start": {
                    "en": "Create a yellow ring, tip: rainbow bolls can change color by tapping."
                },
                "succes": {
                    "en": "Happy as a unicorn :)"
                }
            }
        }
    ],
    "background": {
        "id": "background",
        "scaleToFit": true,
        "x": 0.5,
        "y": 0.5,
        "rotationSpeed": 1
    },
    "stage": {
        "x": 0.5,
        "y": 0.7,
        "zoomLocked": true,
        "dragLocked": true,
        "rotationSpeed": -2,
        "layerCount": 3,
        "planet": {
            "name": "Planet X",
            "id": "gray",
            "filters": {
                "color": [0.75, 0.75, 0.75, 1, 10, 30, 70, 0]
            },
            "r": 2
        }
    },
    "outerSpace": {
        "speed": 0.33,
        "interval": 1500,
        "sequence": "_ rA_ _ r3r3r3r3_ _ rA_ _ r2r2r2r2_ _ "
    }
},{
    "mode": "story",
    "id": "007",
    "title": "Level 7",
    "goals": [
        {
            "id": 1,
            "delay": 500,
            "targets": [
                {
                    "type": "ring",
                    "subtype": "r2",
                    "amount": 2
                }
            ],
            "numberOfTargetsRequired": 1,
            "reward": {
                "score": 1000
            },
            "text": {
                "start": {
                    "en": "Create 2 pink rings"
                },
                "succes": {
                    "en": "Well done!"
                }
            }
        }
    ],
    "background": {
        "id": "background",
        "scaleToFit": true,
        "x": 0.5,
        "y": 0.5,
        "rotationSpeed": 1
    },
    "stage": {
        "x": 0.5,
        "y": 0.7,
        "zoomLocked": true,
        "dragLocked": true,
        "rotationSpeed": -2,
        "layerCount": 3,
        "planet": {
            "name": "Planet X",
            "id": "gray",
            "filters": {
                "color": [0.75, 0.75, 0.75, 1, 10, 30, 70, 0]
            },
            "r": 2
        }
    },
    "outerSpace": {
        "speed": 0.33,
        "interval": 1500,
        "sequence": "r3r3r3r3_ _ r1r1r1r1_ _ rA"
    }
},{
    "mode": "story",
    "id": "008",
    "title": "Level 7",
    "goals": [
        {
            "id": 1,
            "delay": 500,
            "targets": [
                {
                    "type": "ring-layer-2",
                    "subtype": "r4",
                    "amount": 1
                }
            ],
            "numberOfTargetsRequired": 1,
            "reward": {
                "score": 1000
            },
            "text": {
                "start": {
                    "en": "Create a green ring on the second layer"
                },
                "succes": {
                    "en": "Sweet!"
                }
            }
        }
    ],
    "background": {
        "id": "background",
        "scaleToFit": true,
        "x": 0.5,
        "y": 0.5,
        "rotationSpeed": 1
    },
    "stage": {
        "x": 0.5,
        "y": 0.7,
        "zoomLocked": true,
        "dragLocked": true,
        "rotationSpeed": -2,
        "layerCount": 4,
        "planet": {
            "name": "Planet X",
            "id": "gray",
            "filters": {
                "color": [0.75, 0.75, 0.75, 1, 10, 30, 70, 0]
            },
            "r": 2
        }
    },
    "outerSpace": {
        "speed": 0.33,
        "interval": 1400,
        "sequence": "r3r3r3r3_ _ r1r1r1r1_ _ r3r3_ _ _ rB"
    }
},{
    "mode": "story",
    "id": "009",
    "title": "Level 9",
    "goals": [
        {
            "id": 1,
            "delay": 500,
            "targets": [
                {
                    "type": "score",
                    "amount": 100,
                    "compare": ">="
                }
            ],
            "numberOfTargetsRequired": 1,
            "reward": {
                "score": 100
            },
            "text": {
                "start": {
                    "en": "Score 100 points. "
                },
                "succes": {
                    "en": "Crazyness..."
                }
            }
        }
    ],
    "background": {
        "id": "background",
        "scaleToFit": true,
        "x": 0.5,
        "y": 0.5,
        "rotationSpeed": 1
    },
    "stage": {
        "x": 0.5,
        "y": 0.7,
        "zoomLocked": true,
        "dragLocked": true,
        "rotationSpeed": -2,
        "layerCount": 5,
        "planet": {
            "name": "Planet X",
            "id": "gray",
            "filters": {
                "color": [0.75, 0.75, 0.75, 1, 10, 30, 70, 0]
            },
            "r": 2
        }
    },
    "outerSpace": {
        "speed": 0.36,
        "interval": 1300,
        "sequence": "r2r2r2r2_ _ r1r1r1r1_ _ rB"
    }
},{
    "mode": "story",
    "id": "010",
	"title": "Level 10",
	"goals": [
		{
			"id": 1,
			"delay": 500,
			"targets": [{
                "type": "single-score",
                "amount": 180,
                "compare": "=="
			}],
            "numberOfTargetsRequired": 1,
			"reward": {
                "score": 321
			},
			"text": {
				"start": {
                    "en": "Score a one hundred and eighty in a single move. "
				},
				"succes": {
                    "en": "Unbelievable..."
				}
			}
		}
	],
	"background": {
		"id": "background",
		"scaleToFit": true,
		"x": 0.5,
		"y": 0.5,
		"rotationSpeed": 1
	},
	"stage": {
		"x": 0.5,
		"y": 0.7,
		"zoomLocked": true,
		"dragLocked": true,
		"rotationSpeed": -2,
		"layerCount": 5,
		"planet": {
			"name": "Planet X",
			"id": "gray",
			"filters": {
				"color": [0.75, 0.75, 0.75, 1, 10, 30, 70, 0]
			},
			"r": 2
		}
	},
	"outerSpace": {
        "speed": 0.4,
        "interval": 1200,
        "sequence": "r2r2r2r2_ _ r1r1r1r1_ _ rB"
	}
},{
    "mode": "story",
    "id": "011",
    "title": "Stacks",
    "goals": [
        {
            "id": 1,
            "delay": 500,
            "targets": [
                {
                    "type": "stack",
                    "amount": 1
                }
            ],
            "numberOfTargetsRequired": 1,
            "reward": {
                "score": 1000
            },
            "text": {
                "start": {
                    "en": "Stack 4 blocks with the same color on each other"
                },
                "succes": {
                    "en": "Good!"
                }
            }
        },
        {
            "id": 2,
            "delay": 500,
            "targets": [
                {
                    "type": "stack",
                    "additional": 5,
                    "amount": 1
                }
            ],
            "numberOfTargetsRequired": 1,
            "reward": {
                "score": 1000
            },
            "text": {
                "start": {
                    "en": "A stack of 4 also removes other objects above or below the stack. Stack 4 blocks with the same color on a DIFFERENT object"
                },
                "succes": {
                    "en": "Woohoo, you did it again!"
                }
            }
        }
    ],
    "background": {
        "id": "background",
        "scaleToFit": true,
        "x": 0.5,
        "y": 0.5,
        "rotationSpeed": 1
    },
    "stage": {
        "x": 0.5,
        "y": 0.7,
        "zoomLocked": true,
        "dragLocked": true,
        "rotationSpeed": -2,
        "layerCount": 5,
        "planet": {
            "name": "Planet X",
            "id": "gray",
            "filters": {
                "color": [0.75, 0.75, 0.75, 1, 10, 30, 70, 0]
            },
            "r": 2
        }
    },
    "outerSpace": {
        "speed": 0.7,
        "interval": 1000,
        "sequence": "r1r1r1r2r2r3r3r1r1r2r2r3_ _ s2s2_ _ s1s1s1_ _ s2s2_ _ s1s1s1s1_ _ s2s2s2_ _ s2s2_ _ s1s1s1s1_ _ s2s2_ _ _ _ "

    }
},{
    "mode": "story",
    "id": "012",
    "title": "",
    "goals": [
        {
            "id": 1,
            "delay": 500,
            "targets": [
                {
                    "type": "stack",
                    "subtype": "s1",
                    "amount": 4
                }
            ],
            "numberOfTargetsRequired": 1,
            "reward": {
                "score": 1000
            },
            "text": {
                "start": {
                    "en": "Stack 4 red blocks on each other"
                },
                "succes": {
                    "en": "Good, stacks are da bomb!"
                }
            }
        }
    ],
    "background": {
        "id": "background",
        "scaleToFit": true,
        "x": 0.5,
        "y": 0.5,
        "rotationSpeed": 1
    },
    "stage": {
        "x": 0.5,
        "y": 0.7,
        "zoomLocked": true,
        "dragLocked": true,
        "rotationSpeed": -2,
        "layerCount": 5,
        "planet": {
            "name": "Planet X",
            "id": "gray",
            "filters": {
                "color": [0.75, 0.75, 0.75, 1, 10, 30, 70, 0]
            },
            "r": 2
        }
    },
    "outerSpace": {
        "speed": 0.7,
        "interval": 700,
        "sequence": "s2s2s2s2_ _ s1s1_ _ s1s1_ _ r1s1r1s1_ _ "
    }
},{
    "mode": "story",
    "id": "013",
    "title": "",
    "goals": [
        {
            "id": 1,
            "delay": 500,
            "targets": [
                {
                    "type": "triangle",
                    "amount": 4,
                    "compare": ">="
                }
            ],
            "numberOfTargetsRequired": 1,
            "reward": {
                "score": 1000
            },
            "text": {
                "start": {
                    "en": "Create 4 triangles"
                },
                "succes": {
                    "en": "Good job!"
                }
            }
        }
    ],
    "background": {
        "id": "background",
        "scaleToFit": true,
        "x": 0.5,
        "y": 0.5,
        "rotationSpeed": 1
    },
    "stage": {
        "x": 0.5,
        "y": 0.7,
        "zoomLocked": true,
        "dragLocked": true,
        "rotationSpeed": -2,
        "layerCount": 5,
        "planet": {
            "name": "Planet X",
            "id": "gray",
            "filters": {
                "color": [0.75, 0.75, 0.75, 1, 10, 30, 70, 0]
            },
            "r": 2
        }
    },
    "outerSpace": {
        "speed": 0.8,
        "interval": 1000,
        "sequence": "r1r1r1r1_ t1t1t1t1_ _ _ "
    }
},{
    "mode": "story",
    "id": "014",
    "title": "",
    "goals": [
        {
            "id": 1,
            "delay": 500,
            "outerSpace": {
                "speed": 0.8
            },
            "targets": [
                {
                    "type": "ring",
                    "subtype": "r3",
                    "amount": 50
                },
                {
                    "type": "triangle",
                    "amount": 2
                }
            ],
            "numberOfTargetsRequired": 1,
            "reward": {
                "score": 500
            },
            "text": {
                "start": {
                    "en": "Create 50 blue rings -OR- 2 triangles"
                },
                "succes": {
                    "en": "Well done!"
                }
            }
        }
    ],
    "background": {
        "id": "background",
        "scaleToFit": true,
        "x": 0.5,
        "y": 0.5,
        "rotationSpeed": 1
    },
    "stage": {
        "x": 0.5,
        "y": 0.7,
        "zoomLocked": true,
        "dragLocked": true,
        "rotationSpeed": -2,
        "layerCount": 5,
        "planet": {
            "name": "Planet X",
            "id": "gray",
            "filters": {
                "color": [0.75, 0.75, 0.75, 1, 10, 30, 70, 0]
            },
            "r": 2
        }
    },
    "outerSpace": {
        "speed": 0.7,
        "interval": 500,
        "sequence": "r3r3r2r2r2r3r3_ t1t1t1t1_ _ _ "
    }
},{
    "mode": "story",
    "id": "015",
    "title": "",
    "goals": [
        {
            "id": 1,
            "delay": 500,
            "outerSpace": {
                "speed": 0.8
            },
            "targets": [
                {
                    "type": "ring",
                    "subtype": "r1",
                    "amount": 2
                },
                {
                    "type": "stack",
                    "subtype": "s1",
                    "amount": 2
                },
                {
                    "type": "triangle",
                    "amount": 2
                }
            ],
            "numberOfTargetsRequired": 3,
            "reward": {
                "score": 500
            },
            "text": {
                "start": {
                    "en": "Create 2 yellow rings, 2 red stacks and 2 triangles"
                },
                "succes": {
                    "en": "Level complete!"
                }
            }
        }
    ],
    "background": {
        "id": "background",
        "scaleToFit": true,
        "x": 0.5,
        "y": 0.5,
        "rotationSpeed": 1
    },
    "stage": {
        "x": 0.5,
        "y": 0.7,
        "zoomLocked": true,
        "dragLocked": true,
        "rotationSpeed": -2,
        "layerCount": 5,
        "planet": {
            "name": "Planet X",
            "id": "gray",
            "filters": {
                "color": [0.75, 0.75, 0.75, 1, 10, 30, 70, 0]
            },
            "r": 2
        }
    },
    "outerSpace": {
        "speed": 0.7,
        "interval": 700,
        "sequence": "r1r1r1r1_ s1s1s1s1_ _ t1t1t1t1_ _ _ "
    }
},{
    "mode": "story",
    "id": "016",
    "title": "",
    "goals": [
        {
            "id": 1,
            "delay": 500,
            "outerSpace": {
                "speed": 0.8
            },
            "targets": [
                {
                    "type": "ring",
                    "subtype": "r4",
                    "amount": 1
                }
            ],
            "numberOfTargetsRequired": 1,
            "reward": {
                "score": 500
            },
            "text": {
                "start": {
                    "en": "Create 1 green ring. Easy enough, right ?"
                },
                "succes": {
                    "en": "Perfect"
                }
            }
        },
        {
            "id": 1,
            "delay": 500,
            "outerSpace": {
                "speed": 0.8
            },
            "targets": [
                {
                    "type": "ring-layer-2",
                    "subtype": "r4",
                    "amount": 1
                }
            ],
            "numberOfTargetsRequired": 1,
            "reward": {
                "score": 500
            },
            "text": {
                "start": {
                    "en": "Create a green ring on the second layer. Easy peasy ..."
                },
                "succes": {
                    "en": "Level complete!"
                }
            }
        }
    ],
    "background": {
        "id": "background",
        "scaleToFit": true,
        "x": 0.5,
        "y": 0.5,
        "rotationSpeed": 1
    },
    "stage": {
        "x": 0.5,
        "y": 0.7,
        "zoomLocked": true,
        "dragLocked": true,
        "rotationSpeed": -2,
        "layerCount": 5,
        "planet": {
            "name": "Planet X",
            "id": "gray",
            "filters": {
                "color": [0.75, 0.75, 0.75, 1, 10, 30, 70, 0]
            },
            "r": 2
        }
    },
    "outerSpace": {
        "speed": 1,
        "interval": 1200,
        "sequence": "r1r1r1r1_ s1s1s1s1_ _ t1t1t1t1_ _ _ r4_ _ "
    }
},{
    "mode": "story",
    "id": "017",
    "title": "",
    "goals": [
        {
            "id": 1,
            "delay": 500,
            "outerSpace": {
                "speed": 0.8
            },
            "targets": [
                {
                    "type": "ring",
                    "subtype": "r4",
                    "amount": 1,
                    "compare": "max"
                },
                {
                    "type": "ring",
                    "subtype": "t2",
                    "amount": 0,
                    "compare": "max"
                },
                {
                    "type": "stack",
                    "subtype": "s3",
                    "amount": 10
                }
            ],
            "numberOfTargetsRequired": 3,
            "reward": {
                "score": 500
            },
            "text": {
                "start": {
                    "en": "Create 10 stacks, and NO more than 1 green ring and NO blue ring at all."
                },
                "succes": {
                    "en": "Level complete!"
                }
            }
        }
    ],
    "background": {
        "id": "background",
        "scaleToFit": true,
        "x": 0.5,
        "y": 0.5,
        "rotationSpeed": 1
    },
    "stage": {
        "x": 0.5,
        "y": 0.7,
        "zoomLocked": true,
        "dragLocked": true,
        "rotationSpeed": -2,
        "layerCount": 5,
        "planet": {
            "name": "Planet X",
            "id": "gray",
            "filters": {
                "color": [0.75, 0.75, 0.75, 1, 10, 30, 70, 0]
            },
            "r": 2
        }
    },
    "outerSpace": {
        "speed": 1,
        "interval": 1000,
        "sequence": "r4r4r4_ s3s3s3s3_ _ t2t2t2_ _ _ "
    }
},{
    "mode": "story",
    "id": "018",
    "title": "",
    "goals": [
        {
            "id": 1,
            "delay": 500,
            "outerSpace": {
                "speed": 0.8
            },
            "targets": [
                {
                    "type": "triangle",
                    "amount": 4,
                    "maxDelay": 1000
                }
            ],
            "numberOfTargetsRequired": 1,
            "reward": {
                "score": 500
            },
            "text": {
                "start": {
                    "en": "Create 4 triangles at the same time"
                },
                "succes": {
                    "en": "Wheee!!, creating multiple shapes at once, gives you more points."
                }
            }
        },
        {
            "id": 1,
            "delay": 500,
            "outerSpace": {
                "speed": 1,
                "sequence": "r1_ _ r2r2r2r2r2r2r2_ _ _ t2_ _ _ "
            },
            "targets": [
                {
                    "type": "ring",
                    "amount": 2,
                    "maxDelay": 5000
                }
            ],
            "numberOfTargetsRequired": 1,
            "reward": {
                "score": 500
            },
            "text": {
                "start": {
                    "en": "Create 2 rings at the same time"
                },
                "succes": {
                    "en": "Level complete!"
                }
            }
        }
    ],
    "background": {
        "id": "background",
        "scaleToFit": true,
        "x": 0.5,
        "y": 0.5,
        "rotationSpeed": 1
    },
    "stage": {
        "x": 0.5,
        "y": 0.7,
        "zoomLocked": true,
        "dragLocked": true,
        "rotationSpeed": -2,
        "layerCount": 5,
        "planet": {
            "name": "Planet X",
            "id": "gray",
            "filters": {
                "color": [0.75, 0.75, 0.75, 1, 10, 30, 70, 0]
            },
            "r": 2
        }
    },
    "outerSpace": {
        "speed": 1,
        "interval": 1000,
        "sequence": "r2r2r2r2r2_ _ _ t2t2t2t2_ _ _ "
    }
},{
    "mode": "story",
    "id": "019",
    "title": "",
    "goals": [
        {
            "id": 1,
            "delay": 500,
            "targets": [
                {
                    "type": "score",
                    "amount": 10000,
                    "compare": "cantCompleteBwahahaa"
                },
                {
                    "type": "hidden-killed"
                }
            ],
            "numberOfTargetsRequired": 1,
            "reward": {
                "score": 0
            },
            "text": {
                "start": {
                    "en": "Score like 10000 points"
                },
                "succes": {
                    "en": "WTF!, you totally got owned ffs!!!"
                }
            }
        }
    ],
    "background": {
        "id": "background",
        "scaleToFit": true,
        "x": 0.5,
        "y": 0.5,
        "rotationSpeed": 1
    },
    "enemy": {
        "loop": false,
        "items": [
            {
                "id": "wave-1",
                "delay": 60000,
                "items": [
                    {
                        "id": "ufo-1",
                        "delay": 0,
                        "duration": 5000,
                        "health": 100,
                        "scale": 0.1,
                        "x": 0.4,
                        "y": -1.3,
                        "filters": {
                            "color": [0.5, 0.5, 0.5, 1, 0, 40, 80, 0]
                        }
                    }
                ]
            },
            {
                "id": "wave-2",
                "delay": 15000,
                "items": [
                    {
                        "id": "ufo-1",
                        "delay": 0,
                        "duration": 15000,
                        "health": 100,
                        "scale": 0.25,
                        "x": -0.05,
                        "y": 0.5,
                        "filters": {
                            "color": [0.5, 0.5, 0.5, 1, 0, 40, 80, 0]
                        }
                    }
                ]
            },
            {
                "id": "wave-3",
                "delay": 10000,
                "items": [
                    {
                        "id": "ufo-1",
                        "delay": 0,
                        "health": 100,
                        "scale": 0.4,
                        "x": 0.6,
                        "y": -1.1,
                        "filters": {
                            "color": [0.5, 0.5, 0.5, 1, 0, 40, 80, 0]
                        },
                        "missiles": {
                            "id": "missile waves",
                            "loop": true,
                            "items": [
                                {
                                    "id": "missiles 1",
                                    "delay": 1000,
                                    "interval": 2000,
                                    "items": "_ b1g1_ b1g1_ b1g1_ b1g1",
                                    "speed": 0.5
                                },
                                {
                                    "id": "missiles 2",
                                    "delay": 1000,
                                    "interval": 2000,
                                    "items": "_ a2c2d2_ a2c2d2_ a2c2d2",
                                    "speed": 0.65
                                },
                                {
                                    "id": "missiles 3",
                                    "delay": 1000,
                                    "interval": 1500,
                                    "items": "_ c3d3e3f3_ c3d3e3f3_ c3d3e3f3",
                                    "speed": 0.8
                                },
                                {
                                    "id": "missiles 4",
                                    "delay": 1000,
                                    "interval": 1000,
                                    "items": "f4f4f4f4f4f4f4f4f4f4f4f4f4f4f4f4f4f4f",
                                    "speed": 1
                                }
                            ]
                        }

                    }
                ]
            }
        ]
    },
    "stage": {
        "x": 0.5,
        "y": 0.7,
        "zoomLocked": true,
        "dragLocked": true,
        "rotationSpeed": -2,
        "layerCount": 5,
        "planet": {
            "name": "Planet X",
            "id": "gray",
            "filters": {
                "color": [0.75, 0.75, 0.75, 1, 10, 30, 70, 0]
            },
            "r": 2
        }
    },
    "outerSpace": {
        "speed": 0.7,
        "interval": 500,
        "sequence": "r1r1r1r1_ s1s1s1s1_ _ t1t1t1t1_ _ _ "
    }
},{
    "mode": "story",
    "id": "020",
    "title": "",
    "goals": [
        {
            "id": 1,
            "delay": 500,
            "outerSpace": {
                "speed": 0
            },
            "targets": [
                {
                    "type": "zoomOut",
                    "amount": 1,
                    "compare": ">="
                },
                {
                    "type": "zoomIn",
                    "amount": 1,
                    "compare": ">="
                }
            ],
            "numberOfTargetsRequired": 2,
            "reward": {
                "score": 0
            },
            "text": {
                "start": {
                    "en": "Zoom out and in using pinch or pressint the arrow up key."
                },
                "succes": {
                    "en": "When zoomed out, you can see a ring around the planet showing it's health."
                }
            }
        },
        {
            "id": 2,
            "delay": 500,
            "targets": [
                {
                    "type": "score",
                    "amount": 20,
                    "compare": ">="
                }
            ],
            "numberOfTargetsRequired": 1,
            "reward": {
                "score": 1000
            },
            "text": {
                "start": {
                    "en": "Score 20 points "
                },
                "succes": {
                    "en": "/cheer"
                }
            }
        }
    ],
    "background": {
        "id": "background",
        "scaleToFit": true,
        "x": 0.5,
        "y": 0.5,
        "rotationSpeed": 1
    },
    "stage": {
        "x": 0.5,
        "y": 0.7,
        "dragLocked": true,
        "rotationSpeed": -2,
        "layerCount": 5,
        "planet": {
            "name": "Planet X",
            "id": "gray",
            "filters": {
                "color": [0.75, 0.75, 0.75, 1, 10, 30, 70, 0]
            },
            "r": 2
        }
    },
    "outerSpace": {
        "speed": 0.7,
        "interval": 700,
        "sequence": "r1r1_ r3r3r3_ _ r2r2_ r3r3_ _ r1r1_ r3r3_ _ _ "
    }
},{
    "mode": "story",
    "id": "021",
    "title": "Shields up",
    "goals": [
        {
            "id": 1,
            "delay": 500,
            "outerSpace": {
                "speed": 1
            },
            "targets": [
                {
                    "type": "ring",
                    "amount": 5
                }
            ],
            "numberOfTargetsRequired": 1,
            "reward": {
                "score": 50
            },
            "text": {
                "start": {
                    "en": "Create 5 shields"
                },
                "succes": {
                    "en": "Nice job, shield are good!"
                }
            }
        }
    ],
    "background": {
        "id": "fuel4",
        "scaleToFit": true,
        "x": 0.5,
        "y": 0.5,
        "rotationSpeed": 2
    },
    "stage": {
        "x": 0.5,
        "y": 0.7,
        "dragLocked": true,
        "rotationSpeed": -4,
        "layerCount": 3,
        "planet": {
            "name": "Planet X",
            "id": "fplanet2",
            "filters": {
                "color": [0.75, 0.75, 0.75, 1, 90, 100, 80, 0]
            },
            "r": 2
        },
        "shields": true
    },
    "outerSpace": {
        "speed": 0.8,
        "interval": 800,
        "sequence": "r1r1r1r1r1r1r1r2r2r2r2r2r2r2r2_ _ r3_ _ "
    }
},{
    "mode": "story",
    "id": "022",
	"title": "",
	"goals": [
		{
			"id": 1,
			"delay": 500,
			"outerSpace": {
				"speed": 1
			},
			"targets": [{
				"type": "ring",
				"subtype": "r2",
				"amount": 1
			}, {
				"type": "ring",
				"subtype": "r1",
				"amount": 1
			}, {
				"type": "ring",
				"subtype": "t1",
				"amount": 1
			}],
			"numberOfTargetsRequired": 3,
			"reward": {
				"score": 50
			},
			"text": {
				"start": {
					"en": "Create a pink, a yellow and a blue shield"
				},
				"succes": {
					"en": "Good job!"
				}
			}
			}
				],
	"background": {
		"id": "fuel4",
		"scaleToFit": true,
		"x": 0.5,
		"y": 0.5,
		"rotationSpeed": 2
	},
	"stage": {
		"x": 0.5,
		"y": 0.7,
		"dragLocked": true,
		"rotationSpeed": -4,
		"layerCount": 5,
		"planet": {
			"name": "Planet X",
			"id": "fplanet2",
			"filters": {
				"color": [0.8, 0.8, 0.8, 1, -20, 30, 20, 0]
			},
			"r": 2
		},
		"shields": true
	},
	"outerSpace": {
		"speed": 0.8,
		"interval": 800,
		"sequence": "r1r1r1r1r1r1_ _ r2r2r2r2r2_ _ t1t1t1_ _ "
	}
},{
    "mode": "story",
    "id": "023",
	"title": "",
	"goals": [
		{
			"id": 1,
			"delay": 500,
			"outerSpace": {
				"speed": 1
			},
			"targets": [{
				"type": "survive",
				"amount": 120
			}],
			"numberOfTargetsRequired": 1,
			"reward": {
				"score": 5000
			},
			"text": {
				"start": {
					"en": "Survive for 2 minutes, hint: zooming out activates your shields"
				},
				"succes": {
					"en": "You survived!!!"
				}
			}
		}
	],
	"background": {
		"id": "lightning",
		"scaleToFit": true,
		"x": 0.5,
		"y": 0.5,
		"rotationSpeed": 3
	},
	"stage": {
		"x": 0.5,
		"y": 0.7,
		"rotationSpeed": -5,
		"layerCount": 3,
		"planet": {
			"name": "Planet X",
			"id": "moon",
			"filters": {
				"color": [0.75, 0.75, 0.75, 1, 38, 9, 34, 0]
			},
			"color": {
				"r": 240,
				"g": 200,
				"b": 240
			},
			"r": 2
		},
		"shields": true
	},
	"enemy": {
		"loop": false,
		"items": [
			{
				"id": "wave-1",
				"delay": 0,
				"items": [
					{
						"id": "ufo-1",
						"delay": 0,
						"scale": 0.5,
						"x": 0.5,
						"y": -0.8,
						"filters": {
							"color": [0.5, 0.5, 0.5, 1, 120, 80, 100, 0]
						},
						"missiles": {
							"id": "missile waves",
							"delay": 10000,
							"ex-loop": true,

							"items": [{
								"id": "missiles",
								"delay": 8000,
								"interval": 1500,
								"items": "d1d2c2c3",
								"loop": true
							}]
						}

					}
				]
			}
		]
	},
	"outerSpace": {
		"speed": 0.8,
		"interval": 800,
		"sequence": "r3r3r3r3r3r3r3r4r4r4r4r4r4r4_ _ "
	}
},{
    "mode": "story",
    "id": "024",
	"title": "",
	"goals": [
		{
			"id": 1,
			"delay": 500,
			"outerSpace": {
				"speed": 1
			},
			"targets": [{
				"type": "survive",
				"amount": 60
			}],
			"numberOfTargetsRequired": 1,
			"reward": {
				"score": 50000
			},
			"text": {
				"start": {
					"en": "Survive for 60 seconds, hint: use pink shields against pink missiles"
				},
				"succes": {
					"en": "You survived again!!!"
				}
			}
		}
	],
	"background": {
		"id": "background",
		"scaleToFit": true,
		"filters": {
			"color": [1, 1, 1, 1, 100, 50, 0, 1],
			"blur": [5, 5, 1]
		},
		"x": 0.5,
		"y": 0.5,
		"rotationSpeed": 3
	},
	"stage": {
		"x": 0.5,
		"y": 0.7,
		"rotationSpeed": -5,
		"layerCount": 7,
		"planet": {
			"name": "Planet X",
			"id": "fplanet2",
			"filters": {
				"color": [0.8, 0.8, 0.8, 1, 110, 110, 70, 0]
			},
			"r": 2
		},
		"shields": true
	},
	"enemy": {
		"loop": false,
		"items": [
			{
				"id": "wave-1",
				"delay": 0,
				"items": [
					{
						"id": "ufo-1",
						"delay": 0,
						"scale": 0.3,
						"x": -0.5,
						"y": -1,
						"filters": {
							"color": [0.5, 0.5, 0.5, 1, 160, 150, 130, 0]
						},
						"missiles": {
							"id": "missile waves",
							"delay": 2000,
							"loop": true,

							"items": [{
								"id": "missiles",
								"delay": 5000,
								"interval": 2000,
								"items": "b1b2b3b4",
								"loop": true
							}]
						}

					}
				]
			}
		]
	},

	"outerSpace": {
		"speed": 1,
		"interval": 600,
		"sequence": "r2r2r2r2_ _ r1r1r1r1r1r1r1r1_ _ "
	}
},{
    "mode": "story",
    "id": "025",
	"title": "attack back",
	"goals": [{
			"id": 1,
			"delay": 500,
			"outerSpace": {
				"speed": 0
			},
			"targets": [{
				"type": "drag-down",
				"amount": 1,
				"compare": ">="
			}],
			"numberOfTargetsRequired": 1,
			"reward": {
				"score": 100
			},
			"text": {
				"start": {
					"en": "Drag the planet downwards, then release..."
				},
				"succes": {
					"en": "Good!, now lets put that to use."
				}
			}
		},
		{
			"id": 1,
			"delay": 500,
			"outerSpace": {
				"speed": 1
			},
			"targets": [{
				"type": "enemy-killed",
				"amount": 1
			}],
			"numberOfTargetsRequired": 1,
			"reward": {
				"score": 10000
			},
			"text": {
				"start": {
					"en": "Create a stack and quickly aim at the enemy. You can aim by dragging the planet downwards"
				},
				"succes": {
					"en": "You are victorious!"
				}
			}
		}
	],
	"background": {
		"id": "background",
		"alpha": 0.4,
		"scaleToFit": true,
		"x": 0.5,
		"y": 0.5,
		"rotationSpeed": 3
	},
	"stage": {
		"x": 0.5,
		"y": 0.7,
		"rotationSpeed": 0,
		"layerCount": 6,
		"planet": {
			"name": "Planet X",
			"id": "moon",
			"filters": {
				"color": [0.75, 0.75, 0.75, 1, 10, 17, 26, 0]
			},
			"r": 2
		},
		"shields": true
	},
	"enemy": {
		"loop": false,
		"items": [
			{
				"id": "wave-1",
				"delay": 0,
				"items": [
					{
						"id": "ufo-1",
						"delay": 0,
						"health": 30,
						"scale": 0.5,
						"x": -0.5,
						"y": -0.9,
						"filters": {
							"color": [0.5, 0.5, 0.5, 1, 0, 20, 40, 0]
						},
						"missiles": {
							"id": "missile waves",
							"delay": 10000,
							"loop": true,
							"items": [{
								"id": "missiles",
								"delay": 8000,
								"interval": 2000,
								"items": "d1",
								"loop": true
							}]
						}

					}
				]
			}
		]
	},

	"outerSpace": {
		"speed": 1.1,
		"interval": 800,
		"spread": 0,
		"sequence": "s1s1s1s1_ _ _ r1r1r1_ _ "
	}
},{
    "mode": "story",
    "id": "026",
	"title": "attack back",
	"goals": [
		{
			"id": 1,
			"delay": 500,
			"outerSpace": {
				"speed": 1
			},
			"targets": [{
				"type": "enemy-killed",
				"amount": 1
			}],
			"numberOfTargetsRequired": 1,
			"reward": {
				"score": 9999999
			},
			"text": {
				"start": {
					"en": "Kill enemy dude"
				},
				"succes": {
					"en": "Holy smack!!"
				}
			}
		}
	],
	"background": {
		"id": "background",
		"alpha": 0.4,
		"scaleToFit": true,
		"x": 0.5,
		"y": 0.5,
		"rotationSpeed": 3
	},
	"stage": {
		"x": 0.5,
		"y": 0.7,
		"rotationSpeed": 0,
		"layerCount": 7,
		"planet": {
			"name": "Planet X",
			"id": "moon",
			"filters": {
				"color": [0.75, 0.75, 0.75, 1, 10, 17, 26, 0]
			},
			"r": 2
		},
		"shields": true
	},
	"enemy": {
		"loop": false,
		"items": [
			{
				"id": "wave-1",
				"delay": 4000,
				"items": [
					{
						"id": "ufo-1",
						"delay": 0,
						"health": 60,
						"scale": 0.5,
						"x": 0.6,
						"y": -1.1,
						"filters": {
							"color": [0.5, 0.5, 0.5, 1, 0, 40, 80, 0]
						},
						"missiles": {
							"id": "missile waves",
							"delay": 12000,
							"hideOnDelay": true,
							"loop": true,
							"items": [{
								"id": "missiles",
								"delay": 4000,
								"interval": 4000,
								"items": "_ b1g1",
								"loop": true,
								"speed": 0.5
							}]
						}

					}
				]
			}
		]
	},
	"outerSpace": {
		"speed": 1,
		"interval": 1000,
		"spread": 0,
		"sequence": "r2r2r2_ _ s1s1s1s1s1s1_ _ _ _ t1t1t1t1t1t1_ _ _ _ "
	}
},{
    "mode": "test",
    "id": "001",
	"title": "Shield test small",
	"background": {
		"id": "background",
		"scaleToFit": true,
		"x": 0.5,
		"y": 0.5,
		"rotationSpeed": 3
	},
	"stage": {
		"x": 0.5,
		"y": 0.7,
		"rotationSpeed": -5,
		"layerCount": 3,
		"planet": {
			"name": "Planet X",
			"id": "moon",
			"filters": {
				"color": [0.75, 0.75, 0.75, 1, 20, 40, 60, 0]
			},
			"r": 2
		},
		"shields": true
	},
	"outerSpace": {
		"speed": 0.5,
		"interval": 1000,
		"sequence": "rA_ _ _ r3r3_ _ rA_ _ _ _ "
	}
},{
    "mode": "test",
    "id": "002",
	"title": "attack back",
	"goals": [
		{
			"id": 1,
			"delay": 500,
			"outerSpace": {
				"speed": 1
			},
			"targets": [{
				"type": "enemy-killed",
				"amount": 5
			}],
			"numberOfTargetsRequired": 1,
			"reward": {
				"score": 10000
			},
			"text": {
				"start": {
					"en": "Kill 5 enemies"
				},
				"succes": {
					"en": "You are victorious!"
				}
			}
		}
	],
	"background": {
		"id": "background",
		"alpha": 0.7,
		"scaleToFit": true,
		"x": 0.5,
		"y": 0.5,
		"rotationSpeed": 3
	},
	"stage": {
		"x": 0.5,
		"y": 0.7,
		"rotationSpeed": 0,
		"layerCount": 5,
		"planet": {
			"name": "Planet X",
			"id": "moon",
			"filters": {
				"color": [0.75, 0.75, 0.75, 1, 20, 40, 60, 0]
			},
			"r": 2
		},
		"shields": true
	},
	"enemy": {
		"loop": true,
		"items": [
			{
				"id": "wave-1",
				"delay": 1000,
				"items": [{
					"id": "ufo-1",
					"delay": 0,
					"duration": 10000,
					"health": 100,
					"scale": 0.2,
					"x": 0.6,
					"y": -0.7,
					"filters": {
						"color": [0.5, 0.5, 0.5, 1, 40, 80, 120, 0]
					},
					"missiles": {
						"loop": true,
						"speed": 0.5,
						"items": [{
							"delay": 3000,
							"interval": 2000,
							"duration": 3000,
							"items": "g1",
							"loop": false
						}]
					}
				}, {
					"id": "ufo-1",
					"delay": 2000,
					"health": 25,
					"scale": 0.3,
					"x": -0.6,
					"y": -1,
					"filters": {
						"color": [0.5, 0.5, 0.5, 1, 140, 80, 70, 0]
					},
					"missiles": {
						"loop": true,
						"speed": 0.5,
						"items": [{
							"delay": 4000,
							"interval": 400,
							"items": "b1b2b3",
							"loop": true
						}]
					}
				}]
			}, {
				"id": "wave-2",
				"delay": 2000,
				"items": [{
					"delay": 0,
					"health": 50,
					"id": "ufo-1",
					"scale": 0.5,
					"x": 0.7,
					"y": -1,
					"filters": {
						"color": [0.5, 0.5, 0.5, 1, 0, 0, 0, 0]
					},
					"missiles": {
						"loop": true,
						"speed": 0.5,
						"items": [{
							"delay": 2000,
							"interval": 4000,
							"duration": 10000,
							"items": "b3",
							"loop": true
						}]
					}
				}]
			}
		]
	},
	"outerSpace": {
		"speed": 0.7,
		"interval": 1000,
		"spread": 0,
		"sequence": "s1s1s1s1_ _ "
	}
},{
    "mode": "test",
    "id": "003",
    "title": "Level x",
    "speedIncrease": "todo",
    "goals": [
        {
            "id": 2,
            "delay": 500,
            "targets": [{
                "type": "ring",
                "subtype": "r6",
                "amount": 1
            }],
            "numberOfTargetsRequired": 1,
            "reward": {
                "score": 200
            },
            "text": {
                "start": {
                    "en": "Create a circle of trust"
                },
                "succes": {
                    "en": "Perfect!"
                }
            }
        }
    ],
    "background": {
        "id": "cot",
        "layers": [
            {
                "scale":1,
                "filters": {
                    "color": [1,1, 1, 1, 20, 10, 0, 0.1]
                }

            },
            {
                "scale":2,
                "filters": {
                    "color": [1,1, 1, 1, 90, 90, 64, 0.1]
                }

            },
            {
                "scale":1,
                "filters": {

                    "color": [1,1, 1, 1, 110, 80, 54, 0.1]
                }

            }
        ],
        "scaleToFit": true,
        "x": 0.5,
        "y": 0.7,
        "rotationSpeed": 2
    },
    "stage": {
        "x": 0.5,
        "y": 0.7,
        "zoomLocked": false,
        "dragLocked": true,
        "rotationSpeed": 0,
        "layerCount": 3,
        "planet": {
            "name": "Planet X",
            "id": "cot",
            "face":false,
            "overlay":false,

            "filters": {
                "color": [1, 0.66, 0.78, 1, 90, 65, 64, 1]
            },
            "r": 2
        }
    },
    "outerSpace": {
        "speed": 0.5,
        "interval": 2000,
        "sequence": "r6r5r5r6r5r5r5r6r5r5r5r5r6_ _ "
    }
},{
    "mode": "test",
    "id": "004",
    "title": "Level x",
    "speedIncrease": "todo",
    "goals": [
        {
            "id": 2,
            "delay": 500,
            "targets": [{
                "type": "ring",
                "subtype": "r7",
                "amount": 100
            }],
            "numberOfTargetsRequired": 1,
            "reward": {
                "score": 200
            },
            "text": {
                "start": {
                    "en": "Create a circle of trust"
                },
                "succes": {
                    "en": "Perfect!"
                }
            }
        }
    ],
    "background": {
        "id": "blue-ring",
        "layers": [
            {
                "scale":1
            },
            {
                "scale":0.73
            },
            {
                "scale": 0.57
            }

        ],

        "scaleToFit": true,
        "x": 0.5,
        "y": 0.7,
        "rotationSpeed": 2
    },
    "stage": {
        "x": 0.5,
        "y": 0.7,
        "zoomLocked": false,
        "dragLocked": true,
        "rotationSpeed": 3,
        "layerCount": 6,
        "shields": true,
        "planet": {
            "name": "Planet X",
            "face":false,
            "overlay":false,
            "id": "blue-ring",
            "filters": {
                "color": [1, 0.66, 0.78, 1, 90, 65, 64, 1]
            },
            "r": 2
        }
    },
    "outerSpace": {
        "speed": 1.5,
        "interval": 1000,
        "sequence": "r7r7r8r8r8_ _ "
    }
}]