{
	"title": "Challenge 1",
	"goals": [{
		"id": 1,
		"delay": 500,
		"targets": [{
			"type": "score",
			"amount": 500,
			"compare": ">="
			}],
		"numberOfTargetsRequired": 1,
		"reward": {
			"score": 500
		},
		"text": {
			"start": {
				"en": "Score 500 points "
			},
			"succes": {
				"en": "/cheer"
			}
		}
		}],
	"background": {
		"id": "lightning",
		"scaleToFit": true,
		"x": 0.5,
		"y": 0.5,
		"alpha": 0.3,
		"rotationSpeed": 3
	},
	"stage": {
		"x": 0.5,
		"y": 0.7,
		"dragLocked": true,
		"rotationSpeed": -5,
		"layerCount": 6,
		"planet": {
			"name": "Planet X",
			"id": "fplanet2",
			"filters": {
				"color": [1, 1, 1, 1, 0, -30, -10, 0]
			},
			"r": 2
		}
	},
	"instructions": [],
	"outerSpace": {
		"speed": 0.7,
		"interval": 800,
		"speedIncrease": 0.5,
		"seed": 1,
		"sequence": "t1t1t1_ r1r1r1r1_ _ _ r2r2r2r2r2r2r2_ _ _ t1t1_ _ r1r1r1r1_ r2r2r2r2_ _ _ _ _ t1t1_ r1r2r1r2r1r2r1r2_ _ s1s1_ "
	}
}