{
	"title": "Level 10",
	"goals": [
		{
			"id": 1,
			"delay": 500,
			"targets": [{
                "type": "single-score",
                "amount": 180,
                "compare": "=="
			}],
            "numberOfTargetsRequired": 1,
			"reward": {
                "score": 321
			},
			"text": {
				"start": {
                    "en": "Score a one hundred and eighty in a single move. "
				},
				"succes": {
                    "en": "Unbelievable..."
				}
			}
		}
	],
	"background": {
		"id": "background",
		"scaleToFit": true,
		"x": 0.5,
		"y": 0.5,
		"rotationSpeed": 1
	},
	"stage": {
		"x": 0.5,
		"y": 0.7,
		"zoomLocked": true,
		"dragLocked": true,
		"rotationSpeed": -2,
		"layerCount": 5,
		"planet": {
			"name": "Planet X",
			"id": "gray",
			"filters": {
				"color": [0.75, 0.75, 0.75, 1, 10, 30, 70, 0]
			},
			"r": 2
		}
	},
	"outerSpace": {
        "speed": 0.4,
        "interval": 1200,
        "sequence": "r2r2r2r2_ _ r1r1r1r1_ _ rB"
	}
}