{
    "title": "",
    "goals": [
        {
            "id": 1,
            "delay": 500,
            "outerSpace": {
                "speed": 0.8
            },
            "targets": [
                {
                    "type": "ring",
                    "subtype": "r1",
                    "amount": 2
                },
                {
                    "type": "stack",
                    "subtype": "s1",
                    "amount": 2
                },
                {
                    "type": "triangle",
                    "amount": 2
                }
            ],
            "numberOfTargetsRequired": 3,
            "reward": {
                "score": 500
            },
            "text": {
                "start": {
                    "en": "Create 2 yellow rings, 2 red stacks and 2 triangles"
                },
                "succes": {
                    "en": "Level complete!"
                }
            }
        }
    ],
    "background": {
        "id": "background",
        "scaleToFit": true,
        "x": 0.5,
        "y": 0.5,
        "rotationSpeed": 1
    },
    "stage": {
        "x": 0.5,
        "y": 0.7,
        "zoomLocked": true,
        "dragLocked": true,
        "rotationSpeed": -2,
        "layerCount": 5,
        "planet": {
            "name": "Planet X",
            "id": "gray",
            "filters": {
                "color": [0.75, 0.75, 0.75, 1, 10, 30, 70, 0]
            },
            "r": 2
        }
    },
    "outerSpace": {
        "speed": 0.7,
        "interval": 700,
        "sequence": "r1r1r1r1_ s1s1s1s1_ _ t1t1t1t1_ _ _ "
    }
}