{
	"title": "Level 2",
	"goals": [
		{
			"id": 1,
			"delay": 500,
			"targets": [{
				"type": "ring",
				"amount": 1
			}],
			"numberOfTargetsRequired": 1,
			"reward": {
				"score": 100
			},
			"text": {
				"start": {
					"en": "Create a ring"
				},
				"succes": {
					"en": "Nice!"
				}
			}
		},
		{
			"id": 2,
			"delay": 500,
			"targets": [{
				"type": "ring",
				"subtype": "r1",
				"amount": 1
			}],
			"numberOfTargetsRequired": 1,
			"reward": {
				"score": 200
			},
			"text": {
				"start": {
					"en": "Now let's create a yellow ring"
				},
				"succes": {
					"en": "Perfect!"
				}
			}
		},
		{
			"id": 3,
			"delay": 500,
			"targets": [{
				"type": "ring",
				"subtype": "r2",
				"amount": 2
			}],
			"numberOfTargetsRequired": 1,
			"reward": {
				"score": 500
			},
			"text": {
				"start": {
					"en": "Create two pink rings"
				},
				"succes": {
					"en": "Level complete!"
				}
			}
		}],
	"background": {
		"id": "background",
		"scaleToFit": true,
		"x": 0.5,
		"y": 0.5,
		"rotationSpeed": -1
	},
	"stage": {
		"x": 0.5,
		"y": 0.7,
		"zoomLocked": true,
		"dragLocked": true,
		"rotationSpeed": 2,
		"layerCount": 3,
		"planet": {
			"name": "Planet X",
			"id": "gray",
			"filters": {
				"color": [1, 0.66, 0.78, 1, 90, 65, 64, 1]
			},
			"r": 2
		}
	},
	"outerSpace": {
		"speed": 0.6,
		"interval": 1500,
		"sequence": "r1r1r1r1_ r2r2r2r2_ "
	}
}