{
	"title": "",
	"goals": [
		{
			"id": 1,
			"delay": 500,
			"outerSpace": {
				"speed": 1
			},
			"targets": [{
				"type": "ring",
				"subtype": "r2",
				"amount": 1
			}, {
				"type": "ring",
				"subtype": "r1",
				"amount": 1
			}, {
				"type": "ring",
				"subtype": "t1",
				"amount": 1
			}],
			"numberOfTargetsRequired": 3,
			"reward": {
				"score": 50
			},
			"text": {
				"start": {
					"en": "Create a pink, a yellow and a blue shield"
				},
				"succes": {
					"en": "Good job!"
				}
			}
			}
				],
	"background": {
		"id": "fuel4",
		"scaleToFit": true,
		"x": 0.5,
		"y": 0.5,
		"rotationSpeed": 2
	},
	"stage": {
		"x": 0.5,
		"y": 0.7,
		"dragLocked": true,
		"rotationSpeed": -4,
		"layerCount": 5,
		"planet": {
			"name": "Planet X",
			"id": "fplanet2",
			"filters": {
				"color": [0.8, 0.8, 0.8, 1, -20, 30, 20, 0]
			},
			"r": 2
		},
		"shields": true
	},
	"outerSpace": {
		"speed": 0.8,
		"interval": 800,
		"sequence": "r1r1r1r1r1r1_ _ r2r2r2r2r2_ _ t1t1t1_ _ "
	}
}